wave_LED_data.vcd
$date
	Thu Jan  9 15:55:52 2025
$end
$version
	Icarus Verilog
$end
$timescale
	1ns
$end
$scope module wave_LED_tb $end
$var wire 6 ! LED [5:0] $end
$var reg 1 " clk $end
$var reg 3 # signal [2:0] $end
$scope module wave_LED_inst $end
$var wire 1 " clk $end
$var wire 3 $ signal [2:0] $end
$var wire 6 % u_out [5:0] $end
$var wire 3 & \u_inst.state [2:0] $end
$var wire 1 ' \u_inst.clk $end
$var wire 6 ( \u_inst.LED [5:0] $end
$var wire 3 ) signal_IBUF_I_O [2:0] $end
$var wire 6 * r_out [5:0] $end
$var wire 3 + \r_inst.state [2:0] $end
$var wire 1 , \r_inst.clk $end
$var wire 6 - \r_inst.LED [5:0] $end
$var wire 6 . l_out [5:0] $end
$var wire 3 / \l_inst.state [2:0] $end
$var wire 1 0 \l_inst.clk $end
$var wire 6 1 \l_inst.LED [5:0] $end
$var wire 1 2 display_clk $end
$var wire 6 3 d_out [5:0] $end
$var wire 3 4 \d_inst.state [2:0] $end
$var wire 1 5 \d_inst.clk $end
$var wire 6 6 \d_inst.LED [5:0] $end
$var wire 1 7 clk_IBUF_I_O $end
$var wire 6 8 LED [5:0] $end
$scope module LED_OBUF_O $end
$var wire 1 9 I $end
$var wire 1 : O $end
$upscope $end
$scope module LED_OBUF_O_1 $end
$var wire 1 ; I $end
$var wire 1 < O $end
$upscope $end
$scope module LED_OBUF_O_2 $end
$var wire 1 = I $end
$var wire 1 > O $end
$upscope $end
$scope module LED_OBUF_O_3 $end
$var wire 1 ? I $end
$var wire 1 @ O $end
$upscope $end
$scope module LED_OBUF_O_4 $end
$var wire 1 A I $end
$var wire 1 B O $end
$upscope $end
$scope module LED_OBUF_O_5 $end
$var wire 1 C I $end
$var wire 1 D O $end
$upscope $end
$scope module clk_IBUF_I $end
$var wire 1 " I $end
$var wire 1 7 O $end
$upscope $end
$scope module d_inst.clk_GND_G $end
$var wire 1 E G $end
$upscope $end
$scope module signal_IBUF_I $end
$var wire 1 F I $end
$var wire 1 G O $end
$upscope $end
$scope module signal_IBUF_I_1 $end
$var wire 1 H I $end
$var wire 1 I O $end
$upscope $end
$scope module signal_IBUF_I_2 $end
$var wire 1 J I $end
$var wire 1 K O $end
$upscope $end
$upscope $end
$upscope $end
$enddefinitions $end
$comment Show the parameter values. $end
$dumpall
$end
#0
$dumpvars
0K
0J
0I
0H
0G
0F
0E
0D
0C
0B
0A
0@
0?
0>
0=
0<
0;
0:
09
b0 8
07
b0 6
05
b0 4
b0 3
02
b0 1
00
b0 /
b0 .
b0 -
0,
b0 +
b0 *
b0 )
b0 (
0'
b0 &
b0 %
b0 $
b0 #
0"
b0 !
$end
#1000
17
1"
#2000
07
0"
#3000
17
1"
#4000
07
0"
#5000
b1 )
1K
1J
17
1"
b1 #
b1 $
#6000
07
0"
#7000
17
1"
#8000
07
0"
#9000
17
1"
#10000
07
0"
#11000
17
1"
#12000
07
0"
#13000
17
1"
#14000
07
0"
#15000
1I
1H
b10 )
0K
0J
17
1"
b10 #
b10 $
#16000
07
0"
#17000
17
1"
#18000
07
0"
#19000
17
1"
#20000
07
0"
#21000
17
1"
#22000
07
0"
#23000
17
1"
#24000
07
0"
#25000
b0 )
0I
0H
17
1"
b0 #
b0 $
#26000
1I
1H
b11 )
1K
1J
07
0"
b11 #
b11 $
#27000
17
1"
#28000
07
0"
#29000
17
1"
#30000
07
0"
#31000
17
1"
#32000
07
0"
#33000
17
1"
#34000
07
0"
#35000
17
1"
#36000
1G
1F
0I
0H
b100 )
0K
0J
07
0"
b100 #
b100 $
#37000
17
1"
#38000
07
0"
#39000
17
1"
#40000
07
0"
#41000
17
1"
#42000
07
0"
#43000
17
1"
#44000
07
0"
#45000
17
1"
#46000
b0 )
0G
0F
07
0"
b0 #
b0 $
#47000
b1 )
1K
1J
17
1"
b1 #
b1 $
